D:\final_crime_manager\src\main\java\controller\Form1Controller.java
D:\final_crime_manager\src\main\java\swing\TableCell.java
D:\final_crime_manager\src\main\java\entity\RegisterToVisitXML.java
D:\final_crime_manager\src\main\java\utils\FileUtils.java
D:\final_crime_manager\src\main\java\func\CimeFunc.java
D:\final_crime_manager\src\main\java\raven\fbr\FancyBorderRadius.java
D:\final_crime_manager\src\main\java\component\Bottom.java
D:\final_crime_manager\src\main\java\swing\TextFielInForm.java
D:\final_crime_manager\src\main\java\swing\EventTextField.java
D:\final_crime_manager\src\main\java\component\Header.java
D:\final_crime_manager\src\main\java\chart\LabelColor.java
D:\final_crime_manager\src\main\java\entity\Prison.java
D:\final_crime_manager\src\main\java\swing\Combobox.java
D:\final_crime_manager\src\main\java\swing\PasswordField.java
D:\final_crime_manager\src\main\java\swing\TextFieldAnimation.java
D:\final_crime_manager\src\main\java\form\Form3.java
D:\final_crime_manager\src\main\java\controller\DashBoardController.java
D:\final_crime_manager\src\main\java\chart\blankchart\SeriesSize.java
D:\final_crime_manager\src\main\java\raven\fbr\FancyAnimation.java
D:\final_crime_manager\src\main\java\swing\EventCallBack.java
D:\final_crime_manager\src\main\java\shadow\GraphicsUtilities.java
D:\final_crime_manager\src\main\java\controller\testController.java
D:\final_crime_manager\src\main\java\entity\RegisterToVisit.java
D:\final_crime_manager\src\main\java\form\Form5.java
D:\final_crime_manager\src\main\java\controller\Form4Controller.java
D:\final_crime_manager\src\main\java\entity\User.java
D:\final_crime_manager\src\main\java\chart\blankchart\NiceScale.java
D:\final_crime_manager\src\main\java\swing\ButtonForm.java
D:\final_crime_manager\src\main\java\controller\Form2Controller.java
D:\final_crime_manager\src\main\java\entity\Crime.java
D:\final_crime_manager\src\main\java\chart\ModelLegend.java
D:\final_crime_manager\src\main\java\View\DashBoardView.java
D:\final_crime_manager\src\main\java\controller\Form3Controller.java
D:\final_crime_manager\src\main\java\chart\Chart.java
D:\final_crime_manager\src\main\java\swing\ButtonCustom.java
D:\final_crime_manager\src\main\java\component\Menu.java
D:\final_crime_manager\src\main\java\entity\Employee.java
D:\final_crime_manager\src\main\java\swing\MenuItem.java
D:\final_crime_manager\src\main\java\swing\ModernScrollBarUI.java
D:\final_crime_manager\src\main\java\entity\Test.java
D:\final_crime_manager\src\main\java\shadow\ShadowRenderer.java
D:\final_crime_manager\src\main\java\form\Form1.java
D:\final_crime_manager\src\main\java\swing\ScrollBar.java
D:\final_crime_manager\src\main\java\swing\ButtonOutLine.java
D:\final_crime_manager\src\main\java\chart\blankchart\BlankPlotChart.java
D:\final_crime_manager\src\main\java\chart\ModelChart.java
D:\final_crime_manager\src\main\java\form\Form6.java
D:\final_crime_manager\src\main\java\swing\TableColumn.java
D:\final_crime_manager\src\main\java\raven\fbr\Border.java
D:\final_crime_manager\src\main\java\chart\blankchart\BlankPlotChatRender.java
D:\final_crime_manager\src\main\java\controller\Form5Controller.java
D:\final_crime_manager\src\main\java\form\Form2.java
D:\final_crime_manager\src\main\java\func\VisitFunc.java
D:\final_crime_manager\src\main\java\View\LoginView.java
D:\final_crime_manager\src\main\java\model\ModelMenu.java
D:\final_crime_manager\src\main\java\swing\ScrollBarCustom.java
D:\final_crime_manager\src\main\java\chart\LegendItem.java
D:\final_crime_manager\src\main\java\login\Background.java
D:\final_crime_manager\src\main\java\event\EventMenuSelected.java
D:\final_crime_manager\src\main\java\swing\ImageAvatar.java
D:\final_crime_manager\src\main\java\func\UserFunc.java
D:\final_crime_manager\src\main\java\swing\TextField.java
D:\final_crime_manager\src\main\java\swing\RippleEffect.java
D:\final_crime_manager\src\main\java\swing\Button.java
D:\final_crime_manager\src\main\java\swing\PanelRound.java
D:\final_crime_manager\src\main\java\controller\LoginController.java
D:\final_crime_manager\src\main\java\form\Form4.java
